<?xml version="1.0" encoding="UTF-8" standalone="no"?>
<svg width="17px" height="17px" viewBox="0 0 17 17" version="1.1" xmlns="http://www.w3.org/2000/svg" xmlns:xlink="http://www.w3.org/1999/xlink" xmlns:sketch="http://www.bohemiancoding.com/sketch/ns">
    <!-- Generator: Sketch 3.1.1 (8761) - http://www.bohemiancoding.com/sketch -->
    <title>car</title>
    <desc>Created with Sketch.</desc>
    <defs></defs>
    <g id="Page-1" stroke="none" stroke-width="1" fill="none" fill-rule="evenodd" sketch:type="MSPage">
        <g id="Imported-Layers" sketch:type="MSLayerGroup" transform="translate(1.000000, 3.000000)">
            <path d="M13.105,0.333 L2.355,0.333 L0.355,6.582 L0.355,9.499 L15.105,9.499 L15.105,6.582 L13.105,0.333 L13.105,0.333 Z M3.085,1.333 L12.376,1.333 L13.735,5.582 L1.726,5.582 L3.085,1.333 L3.085,1.333 Z" id="Fill-1" fill="#464547" sketch:type="MSShapeGroup"></path>
            <path d="M0.355,10.019 L0.355,11.394 C0.355,12.119 0.943,12.707 1.668,12.707 C2.393,12.707 2.98,12.119 2.98,11.394 L2.98,10.988 L12.48,10.988 L12.48,11.394 C12.48,12.119 13.068,12.707 13.793,12.707 C14.518,12.707 15.105,12.119 15.105,11.394 L15.105,9.988 L0.355,9.988 L0.355,10.019" id="Fill-2" fill="#464547" sketch:type="MSShapeGroup"></path>
            <path d="M1.684,6.582 L3.371,6.582 L3.371,8.269 L1.684,8.269 L1.684,6.582 Z" id="Fill-3" fill="#FFFFFF" sketch:type="MSShapeGroup"></path>
            <path d="M12.152,6.582 L13.84,6.582 L13.84,8.269 L12.152,8.269 L12.152,6.582 Z" id="Fill-4" fill="#FFFFFF" sketch:type="MSShapeGroup"></path>
        </g>
    </g>
</svg>